%YAML 1.1
%TAG !u! tag:unity3d.com,2011:
--- !u!114 &11400000
MonoBehaviour:
  m_ObjectHideFlags: 0
  m_PrefabParentObject: {fileID: 0}
  m_PrefabInternal: {fileID: 0}
  m_GameObject: {fileID: 0}
  m_Enabled: 1
  m_EditorHideFlags: 0
  m_Script: {fileID: 11500000, guid: 80a2d883b2aef4dfca81e9e15c7c7a0e, type: 3}
  m_Name: PatrolChaser
  m_EditorClassIdentifier: 
  actions:
  - {fileID: 11400000, guid: 49b8f9daba4df489280df65df26702ca, type: 2}
  transitions:
  - decision: {fileID: 11400000, guid: c829eaa0e7c74419991fdd3ed78eef57, type: 2}
    trueState: {fileID: 11400000, guid: 12dcd34992ea049a7b0deaa13179d23f, type: 2}
    falseState: {fileID: 11400000, guid: 8f66932739e06402ea1cab674e6b01da, type: 2}
  sceneGizmoColor: {r: 0.1273585, g: 1, b: 0.20430434, a: 1}
